German Credit Risk Clustering and Modeling
…
Click to expand R code

```{r}
summary_transposed <- summary_by_saving %>%
  pivot_longer(-`Saving accounts`, names_to = "Measure", 
               values_to = "Value") %>%
  pivot_wider(names_from = `Saving accounts`, values_from = Value)

kable(print(summary_transposed))
```

# A tibble: 21 × 6
   Measure         little moderate `quite rich`  rich  `NA`
   <chr>            <dbl>    <dbl>        <dbl> <dbl> <dbl>
 1 Duration_Min       4        6            6    6      4  
 2 Duration_Q1       12       12           12   12     12  
 3 Duration_Median   18       21           15   18     21  
 4 Duration_Mean     20.4     22.7         19.0 18.3   22.7
 5 Duration_Q3       24       27           24   24     30  
 6 Duration_Max      60       72           48   48     60  
 7 Duration_SD       11.7     13.8         11.2  8.55  12.9
 8 Job_Min            0        1            0    0      0  
 9 Job_Q1             2        2            2    2      2  
10 Job_Median         2        2            2    2      2  
# ℹ 11 more rows
…
